{
  "swagger": "2.0",
  "info": {
    "description": "Tello social is to allow users to communicate with each other using their voice, by providing a clear and low latency voice quality that can be used by family, friends, or small businesses.",
    "version": "1.0.0",
    "title": "Tello Api Social App"
  },
  "tags": [
    {
      "name": "User Management",
      "description": "User Management service"
    }
  ],
  "schemes": [
    "https",
    "http"
  ],
  "paths": {
    "/user/{userId}": {
      "get": {
        "tags": [
          "User Management"
        ],
        "summary": "Retrieve a specfic user information",
        "description": "Retrieve specific user information",
        "operationId": "getUserInfo",
        "consumes": [
          "application/json"
        ],
        "produces": [
          "application/json"
        ],
        "parameters": [
          {
            "in": "path",
            "name": "userId",
            "required": true,
            "type": "string"
          }
        ],
        "responses": {
          "200": {
            "description": "Successful operation"
          },
          "403": {
            "description": "Unauthorized."
          },
          "404": {
            "description": "User not found"
          }
        }
      }
    },
    "/users": {
      "get": {
        "tags": [
          "User Management"
        ],
        "summary": "Retrive all users in the system",
        "description": "Retive all users in the system",
        "operationId": "getAllUsers",
        "produces": [
          "application/json"
        ],
        "responses": {
          "202": {
            "description": "Users list found successfuly"
          }
        }
      }
    },
    "/user/{userId}/blocked": {
      "get": {
        "tags": [
          "User Management"
        ],
        "summary": "Get all users blocked by another one",
        "description": "Get all users blocked by another one",
        "operationId": "GetBlockedUserList",
        "consumes": [
          "application/json"
        ],
        "produces": [
          "application/json"
        ],
        "parameters": [
          {
            "in": "path",
            "name": "userId",
            "required": true,
            "type": "string"
          }
        ],
        "responses": {
          "200": {
            "description": "Operation success"
          },
          "403": {
            "description": "Unauthorized."
          },
          "404": {
            "description": "User not found"
          }
        }
      }
    },
    "/user/createUser": {
      "post": {
        "tags": [
          "User Management"
        ],
        "summary": "Create a new user inside Tello app system",
        "description": "Create a new user inside Tello app system",
        "operationId": "CreateUser",
        "consumes": [
          "application/json"
        ],
        "produces": [
          "application/json"
        ],
        "parameters": [
          {
            "in": "body",
            "name": "body",
            "description": "CreateUserRequest",
            "required": true,
            "schema": {
              "$ref": "#/definitions/createUserRequest"
            }
          }
        ],
        "responses": {
          "201": {
            "description": "User created"
          },
          "422": {
            "description": "Invalid entities"
          }
        }
      }
    },
    "/user/blockUser": {
      "post": {
        "tags": [
          "User Management"
        ],
        "summary": "Block user",
        "description": "Block user",
        "operationId": "BlockUser",
        "consumes": [
          "application/json"
        ],
        "produces": [
          "application/json"
        ],
        "parameters": [
          {
            "in": "body",
            "name": "body",
            "required": true,
            "description": "BlockUserRequest",
            "schema": {
              "$ref": "#/definitions/blockUserRequest"
            }
          }
        ],
        "responses": {
          "200": {
            "description": "User successfuly blocked"
          },
          "403": {
            "description": "Unauthorized."
          },
          "404": {
            "description": "User not found"
          }
        }
      }
    },
    "/user/UnblockUser": {
      "post": {
        "tags": [
          "User Management"
        ],
        "summary": "Unblock user",
        "description": "UnBlock user",
        "operationId": "UnBlockUser",
        "consumes": [
          "application/json"
        ],
        "produces": [
          "application/json"
        ],
        "parameters": [
          {
            "in": "body",
            "name": "body",
            "required": true,
            "description": "UnBlockUserRequest",
            "schema": {
              "$ref": "#/definitions/UnBlockUserRequest"
            }
          }
        ],
        "responses": {
          "200": {
            "description": "User successfuly unblocked"
          },
          "403": {
            "description": "Unauthorized."
          },
          "404": {
            "description": "User not found"
          }
        }
      }
    },
    "/user/ReportUser": {
      "post": {
        "tags": [
          "User Management"
        ],
        "summary": "Report User",
        "description": "Report User",
        "operationId": "ReportUser",
        "consumes": [
          "application/json"
        ],
        "produces": [
          "application/json"
        ],
        "parameters": [
          {
            "in": "body",
            "name": "body",
            "required": true,
            "description": "ReportUserRequest",
            "schema": {
              "$ref": "#/definitions/ReportUserRequest"
            }
          }
        ],
        "responses": {
          "200": {
            "description": "Operatioon successful"
          },
          "403": {
            "description": "Unauthorized."
          },
          "404": {
            "description": "User not found"
          }
        }
      }
    },
    "/logout": {
      "post": {
        "tags": [
          "User Management"
        ],
        "summary": "Log out user from the Tello",
        "description": "Log the user from the application",
        "operationId": "logoutUser",
        "produces": [
          "application/json"
        ],
        "responses": {
          "205": {
            "description": "User created"
          }
        }
      }
    },
    "/contact/syncWithUser": {
      "post": {
        "tags": [
          "User Management"
        ],
        "summary": "Sync contacts to Tello servers",
        "description": "Sync contacts to Tello servers",
        "responses": {
          "201": {
            "description": "User successfuly synchronized"
          },
          "404": {
            "description": "User not found"
          }
        },
        "parameters": [
          {
            "name": "body",
            "in": "body",
            "description": "SyncWithUserRequest",
            "required": true,
            "schema": {
              "$ref": "#/definitions/syncWithUserRequest"
            }
          }
        ]
      }
    },
    "/sms/validateSmsCode": {
      "post": {
        "tags": [
          "User Management"
        ],
        "summary": "Validate sms code",
        "description": "Validate sms code",
        "responses": {
          "201": {
            "description": "Sms code validate successfuly"
          },
          "404": {
            "description": "User not found"
          },
          "422": {
            "description": "Invalid informations"
          }
        },
        "parameters": [
          {
            "name": "body",
            "in": "body",
            "description": "validateSmsCodeRequest",
            "required": true,
            "schema": {
              "$ref": "#/definitions/validateSmsCodeRequest"
            }
          }
        ]
      }
    },
    "/user/{userId}/updateUserInfo": {
      "put": {
        "tags": [
          "User Management"
        ],
        "summary": "Update user informations",
        "description": "Update user informations",
        "operationId": "UpdateUserInfo",
        "consumes": [
          "application/json"
        ],
        "produces": [
          "application/json"
        ],
        "parameters": [
          {
            "in": "body",
            "name": "body",
            "description": "UpdateUserInfoRequest",
            "required": true,
            "schema": {
              "$ref": "#/definitions/updateUserInfoRequest"
            }
          },
          {
            "in": "path",
            "name": "userId",
            "required": true,
            "type": "string"
          }
        ],
        "responses": {
          "201": {
            "description": "User created"
          },
          "422": {
            "description": "Invalid entities"
          }
        }
      }
    },
    "/user/{userId}/deleteUser": {
      "delete": {
        "tags": [
          "User Management"
        ],
        "summary": "Delete user from the system",
        "description": "Delete user from the system",
        "operationId": "deleteUser",
        "consumes": [
          "application/json"
        ],
        "produces": [
          "application/json"
        ],
        "parameters": [
          {
            "in": "path",
            "name": "userId",
            "required": true,
            "type": "string"
          }
        ],
        "responses": {
          "200": {
            "description": "User successfuly deleted"
          },
          "403": {
            "description": "Unauthorized."
          },
          "404": {
            "description": "User not found"
          }
        }
      }
    },
    "/user/{userId}/GetGroups": {
      "get": {
        "tags": [
          "Group Management"
        ],
        "summary": "List all groups of specific user",
        "description": "List all groups of specfic user",
        "operationId": "ListAllGroupOfSpecificUser",
        "consumes": [
          "application/json"
        ],
        "produces": [
          "application/json"
        ],
        "parameters": [
          {
            "name": "userId",
            "in": "path",
            "description": "ID of the user",
            "required": true,
            "type": "string"
          }
        ],
        "responses": {
          "200": {
            "description": "successful operation"
          },
          "422": {
            "description": "Invalid input"
          }
        }
      }
    },
    "/group/{groupId}/GetMessages": {
      "get": {
        "tags": [
          "Group Management"
        ],
        "summary": "List all messages inside a group",
        "description": "List all messages inside a group",
        "operationId": "ListAllMessageInside a group",
        "consumes": [
          "application/json"
        ],
        "produces": [
          "application/json"
        ],
        "parameters": [
          {
            "name": "groupId",
            "in": "path",
            "description": "Group Id",
            "required": true,
            "type": "string"
          },
          {
            "name": "limit",
            "in": "query",
            "type": "number",
            "required": false
          }
        ],
        "responses": {
          "200": {
            "description": "successful operation"
          },
          "422": {
            "description": "Invalid input"
          }
        }
      }
    },
    "/group/{groupId}/GetGroupMemebershipSettings": {
      "get": {
        "tags": [
          "Group Management"
        ],
        "summary": "Get Group Memebership Settings",
        "description": "Get Group Memebership Settings",
        "operationId": "GetGroupMemebershipSettings",
        "consumes": [
          "application/json"
        ],
        "produces": [
          "application/json"
        ],
        "parameters": [
          {
            "name": "groupId",
            "in": "path",
            "description": "Group Id",
            "required": true,
            "type": "string"
          },
          {
            "name": "limit",
            "in": "query",
            "type": "number",
            "required": false
          }
        ],
        "responses": {
          "200": {
            "description": "successful operation"
          },
          "422": {
            "description": "Invalid input"
          }
        }
      }
    },
    "/group/{groupId}/GetActivegroup": {
      "get": {
        "tags": [
          "Group Management"
        ],
        "summary": "Get active group",
        "description": "Get active group",
        "operationId": "GetActivegroup",
        "consumes": [
          "application/json"
        ],
        "produces": [
          "application/json"
        ],
        "parameters": [
          {
            "name": "groupId",
            "in": "path",
            "description": "Group Id",
            "required": true,
            "type": "string"
          },
          {
            "name": "limit",
            "in": "query",
            "type": "number",
            "required": false
          }
        ],
        "responses": {
          "200": {
            "description": "successful operation"
          },
          "422": {
            "description": "Invalid input"
          }
        }
      }
    },
    "/group/CreateGroup": {
      "post": {
        "tags": [
          "Group Management"
        ],
        "summary": "Create a new group",
        "description": "Create a new group in Tello application",
        "operationId": "CreateGroup",
        "consumes": [
          "application/json"
        ],
        "produces": [
          "application/json"
        ],
        "parameters": [
          {
            "in": "body",
            "name": "body",
            "description": "Request body to create a new group",
            "required": true,
            "schema": {
              "$ref": "#/definitions/createGroupRequest"
            }
          }
        ],
        "responses": {
          "200": {
            "description": "successful operation"
          },
          "422": {
            "description": "Invalid input"
          }
        }
      }
    },
    "/group/{groupId}/Invtation": {
      "post": {
        "tags": [
          "Group Management"
        ],
        "summary": "Send invitation to join a group",
        "description": "Send invitation to join a group",
        "operationId": "SendInvitation",
        "consumes": [
          "application/json"
        ],
        "produces": [
          "application/json"
        ],
        "parameters": [
          {
            "name": "body",
            "in": "body",
            "required": true,
            "schema": {
              "$ref": "#/definitions/groupInvitationRequest"
            }
          },
          {
            "name": "groupId",
            "in": "path",
            "description": "ID of group",
            "required": true,
            "type": "string"
          }
        ],
        "responses": {
          "200": {
            "description": "successful operation"
          },
          "422": {
            "description": "Invalid input"
          }
        }
      }
    },
    "/group/AcceptGroupInvitation": {
      "post": {
        "tags": [
          "Group Management"
        ],
        "summary": "Accept group invitation",
        "description": "Accept group invitation",
        "operationId": "AcceptGroupInvitation",
        "consumes": [
          "application/json"
        ],
        "produces": [
          "application/json"
        ],
        "parameters": [
          {
            "name": "body",
            "in": "body",
            "required": true,
            "schema": {
              "$ref": "#/definitions/AcceptGroupInvitationRequest"
            }
          }
        ],
        "responses": {
          "200": {
            "description": "successful operation"
          },
          "422": {
            "description": "Invalid input"
          }
        }
      }
    },
    "/group/DeclineGroupInvitation": {
      "post": {
        "tags": [
          "Group Management"
        ],
        "summary": "Decline group invitation",
        "description": "Decline group invitation",
        "operationId": "DeclineGroupInvitation",
        "consumes": [
          "application/json"
        ],
        "produces": [
          "application/json"
        ],
        "parameters": [
          {
            "name": "body",
            "in": "body",
            "required": true,
            "schema": {
              "$ref": "#/definitions/DeclineGroupInvitationRequest"
            }
          }
        ],
        "responses": {
          "200": {
            "description": "successful operation"
          },
          "422": {
            "description": "Invalid input"
          }
        }
      }
    },
    "/group/{groupId}/RenameGroup": {
      "patch": {
        "tags": [
          "Group Management"
        ],
        "summary": "Rename a group",
        "description": "Rename a group",
        "operationId": "RenameGroup",
        "consumes": [
          "application/json"
        ],
        "produces": [
          "application/json"
        ],
        "parameters": [
          {
            "name": "groupId",
            "in": "path",
            "description": "ID of group",
            "required": true,
            "type": "string"
          },
          {
            "name": "body",
            "in": "body",
            "schema": {
              "$ref": "#/definitions/renameGroupRequest"
            },
            "required": true
          }
        ],
        "responses": {
          "200": {
            "description": "successful operation"
          },
          "422": {
            "description": "Invalid input"
          }
        }
      }
    },
    "/group/{groupId}/user/{userId}/removeUser": {
      "delete": {
        "tags": [
          "Group Management"
        ],
        "summary": "Remove user",
        "description": "Remove user from a specific group",
        "operationId": "RemoveUserFromGroup",
        "consumes": [
          "application/json"
        ],
        "produces": [
          "application/json"
        ],
        "parameters": [
          {
            "name": "groupId",
            "in": "path",
            "description": "ID of group where the owner wants to remove  member",
            "required": true,
            "type": "string"
          },
          {
            "name": "userId",
            "in": "path",
            "description": "ID of user to remove",
            "required": true,
            "type": "string"
          }
        ],
        "responses": {
          "200": {
            "description": "successful operation"
          },
          "422": {
            "description": "Invalid input"
          }
        }
      }
    },
    "/group/{groupId}/deleteGroup": {
      "delete": {
        "tags": [
          "Group Management"
        ],
        "summary": "Delete a group",
        "description": "Delete specific group by ID",
        "operationId": "DeleteGroup",
        "consumes": [
          "application/json"
        ],
        "produces": [
          "application/json"
        ],
        "parameters": [
          {
            "name": "groupId",
            "in": "path",
            "description": "ID of group to remove",
            "required": true,
            "type": "string"
          }
        ],
        "responses": {
          "200": {
            "description": "successful operation"
          },
          "422": {
            "description": "Invalid input"
          }
        }
      }
    },
    "/group/admin/{groupId}/settings": {
      "put": {
        "tags": [
          "Group Management"
        ],
        "summary": "Define maxium users per group",
        "description": "Define maximum users per group",
        "operationId": "Define maxium user per group",
        "consumes": [
          "application/json"
        ],
        "produces": [
          "application/json"
        ],
        "parameters": [
          {
            "name": "body",
            "in": "body",
            "required": true,
            "schema": {
              "$ref": "#/definitions/updateGroupSettings"
            }
          },
          {
            "name": "groupId",
            "in": "path",
            "description": "ID of group",
            "required": true,
            "type": "string"
          }
        ],
        "responses": {
          "200": {
            "description": "successful operation"
          },
          "422": {
            "description": "Invalid input"
          }
        }
      }
    },
    "/group/setActiveGroup": {
      "put": {
        "tags": [
          "Group Management"
        ],
        "summary": "Set active group",
        "description": "Set active group",
        "parameters": [
          {
            "name": "body",
            "in": "body",
            "schema": {
              "$ref": "#/definitions/setActiveGroupRequest"
            }
          }
        ],
        "consumes": [
          "application/json"
        ],
        "produces": [
          "application/json"
        ],
        "responses": {
          "200": {
            "description": "Successful operation"
          },
          "422": {
            "description": "Invalid input"
          }
        }
      }
    },
    "/group/setGroupMembershipSettings": {
      "put": {
        "tags": [
          "Group Management"
        ],
        "summary": "Update group membership settings",
        "description": "Update group membership settings",
        "parameters": [
          {
            "name": "body",
            "in": "body",
            "schema": {
              "$ref": "#/definitions/GroupMembershipRequest"
            }
          }
        ],
        "consumes": [
          "application/json"
        ],
        "produces": [
          "application/json"
        ],
        "responses": {
          "200": {
            "description": "Successful operation"
          },
          "422": {
            "description": "Invalid input"
          }
        }
      }
    },
    "/ppt/AudioMessage/{audioMessageId}/getAudioMessage": {
      "get": {
        "tags": [
          "PPT Management"
        ],
        "summary": "Get specific audio message",
        "description": "Get specific audio message",
        "operationId": "getAudioMessage",
        "consumes": [
          "application/json"
        ],
        "produces": [
          "application/json"
        ],
        "parameters": [
          {
            "name": "audioMessageId",
            "in": "path",
            "required": true,
            "type": "string"
          }
        ],
        "responses": {
          "200": {
            "description": "successful operation"
          },
          "404": {
            "description": "Resource not found"
          }
        }
      }
    },
    "/ppt/AudioMessage/{audioMessageId}/group/{groupId}/call/{callId}/getAudioMessages": {
      "get": {
        "tags": [
          "PPT Management"
        ],
        "summary": "Get all audio messages from a specific group",
        "description": "Get all audio messages from a specific group",
        "operationId": "getAllAudioMessage",
        "consumes": [
          "application/json"
        ],
        "produces": [
          "application/json"
        ],
        "parameters": [
          {
            "name": "audioMessageId",
            "in": "path",
            "required": true,
            "type": "string"
          },
          {
            "name": "groupId",
            "in": "path",
            "required": true,
            "type": "string"
          },
          {
            "name": "callId",
            "in": "path",
            "required": true,
            "type": "string"
          }
        ],
        "responses": {
          "200": {
            "description": "successful operation"
          },
          "404": {
            "description": "Resource not found"
          }
        }
      }
    },
    "/ppt/CreateAudioMessage": {
      "post": {
        "tags": [
          "PPT Management"
        ],
        "summary": "Create audio message",
        "description": "Create audio message",
        "operationId": "CreateAudioMessage",
        "consumes": [
          "application/json"
        ],
        "produces": [
          "application/json"
        ],
        "parameters": [
          {
            "name": "body",
            "in": "body",
            "required": true,
            "schema": {
              "$ref": "#/definitions/createAudioMessageRequest"
            }
          }
        ],
        "responses": {
          "200": {
            "description": "successful operation"
          },
          "422": {
            "description": "Invalid input"
          }
        }
      }
    },
    "/ppt/SetAudioMessageListened": {
      "post": {
        "tags": [
          "PPT Management"
        ],
        "summary": "Set Audio Message as listened",
        "description": "Set Audio Message as listened",
        "operationId": "SetAudioMessageListened",
        "consumes": [
          "application/json"
        ],
        "produces": [
          "application/json"
        ],
        "parameters": [
          {
            "name": "body",
            "in": "body",
            "required": true,
            "schema": {
              "$ref": "#/definitions/SetAudioMessageListenedRequest"
            }
          }
        ],
        "responses": {
          "200": {
            "description": "successful operation"
          },
          "422": {
            "description": "Invalid input"
          }
        }
      }
    },
    "/ppt/LauchCall": {
      "post": {
        "tags": [
          "PPT Management"
        ],
        "summary": "Lauch call",
        "description": "Lauch",
        "operationId": "LauchCall",
        "consumes": [
          "application/json"
        ],
        "produces": [
          "application/json"
        ],
        "parameters": [
          {
            "name": "body",
            "in": "body",
            "required": true,
            "schema": {
              "$ref": "#/definitions/LauchCallRequest"
            }
          }
        ],
        "responses": {
          "200": {
            "description": "successful operation"
          },
          "422": {
            "description": "Invalid input"
          }
        }
      }
    },
    "/ppt/RejectCall": {
      "post": {
        "tags": [
          "PPT Management"
        ],
        "summary": "Reject call",
        "description": "Reject Lauch",
        "operationId": "Reject LauchCall",
        "consumes": [
          "application/json"
        ],
        "produces": [
          "application/json"
        ],
        "parameters": [
          {
            "name": "body",
            "in": "body",
            "required": true,
            "schema": {
              "$ref": "#/definitions/RejectCallRequest"
            }
          }
        ],
        "responses": {
          "200": {
            "description": "successful operation"
          },
          "422": {
            "description": "Invalid input"
          }
        }
      }
    },
    "/ppt/{callId}/attachUser": {
      "post": {
        "tags": [
          "PPT Management"
        ],
        "responses": {
          "200": {
            "description": "Successful operation"
          },
          "404": {
            "description": "Resource not found"
          }
        },
        "parameters": [
          {
            "name": "callId",
            "in": "path",
            "required": true,
            "type": "number"
          },
          {
            "name": "body",
            "in": "body",
            "required": true,
            "schema": {
              "$ref": "#/definitions/attachUserRequest"
            }
          }
        ]
      }
    },
    "/ppt/{callId}/detachUser": {
      "post": {
        "tags": [
          "PPT Management"
        ],
        "responses": {
          "200": {
            "description": "Successful operation"
          },
          "404": {
            "description": "Resource not found"
          }
        },
        "parameters": [
          {
            "name": "callId",
            "in": "path",
            "required": true,
            "type": "number"
          },
          {
            "name": "body",
            "in": "body",
            "required": true,
            "schema": {
              "$ref": "#/definitions/attachUserRequest"
            }
          }
        ]
      }
    },
    "/notifications/Push": {
      "post": {
        "tags": [
          "Push Notifications"
        ],
        "summary": "Send push notification",
        "description": "Send push notification",
        "operationId": "SendPushNotification",
        "consumes": [
          "application/json"
        ],
        "produces": [
          "application/json"
        ],
        "parameters": [
          {
            "name": "body",
            "in": "body",
            "required": true,
            "schema": {
              "$ref": "#/definitions/sendPushNotificationRequest"
            }
          }
        ],
        "responses": {
          "200": {
            "description": "successful operation"
          },
          "422": {
            "description": "Invalid input"
          }
        }
      }
    },
    "/notifications/{userId}/History": {
      "get": {
        "tags": [
          "Notifications"
        ],
        "summary": "Get notifications history",
        "description": "Get notifications history",
        "operationId": "Get notificationHistory",
        "consumes": [
          "application/json"
        ],
        "produces": [
          "application/json"
        ],
        "parameters": [
          {
            "name": "userId",
            "in": "path",
            "required": true,
            "type": "string"
          }
        ],
        "responses": {
          "200": {
            "description": "successful operation"
          },
          "422": {
            "description": "Invalid input"
          }
        }
      }
    },
    "/notifications/SendNotification": {
      "post": {
        "tags": [
          "Notifications"
        ],
        "summary": "Send notification",
        "description": "Send notification",
        "operationId": "Send Notification",
        "consumes": [
          "application/json"
        ],
        "produces": [
          "application/json"
        ],
        "parameters": [
          {
            "name": "body",
            "in": "body",
            "required": true,
            "schema": {
              "$ref": "#/definitions/sendNotificationRequest"
            }
          }
        ],
        "responses": {
          "200": {
            "description": "successful operation"
          },
          "422": {
            "description": "Invalid input"
          }
        }
      }
    },
    "/notifications/SetAsRead": {
      "post": {
        "tags": [
          "Notifications"
        ],
        "summary": "Set Notification as readed",
        "description": "Set Notification as readed",
        "operationId": "SetNotificationAsRead",
        "consumes": [
          "application/json"
        ],
        "produces": [
          "application/json"
        ],
        "parameters": [
          {
            "name": "body",
            "in": "body",
            "required": true,
            "schema": {
              "$ref": "#/definitions/readNotificationRequest"
            }
          }
        ],
        "responses": {
          "200": {
            "description": "successful operation"
          },
          "422": {
            "description": "Invalid input"
          }
        }
      }
    }
  },
  "definitions": {
    "attachUserRequest": {
      "type": "object",
      "properties": {
        "userId": {
          "type": "string"
        }
      }
    },
    "GroupMembershipRequest": {
      "type": "object",
      "properties": {
        "limit_ptt_user": {
          "type": "number"
        },
        "group_limit_number": {
          "type": "number"
        },
        "acceptInvitation": {
          "type": "boolean"
        }
      }
    },
    "Settings": {
      "type": "object",
      "properties": {
        "limit_ptt_user": {
          "type": "number"
        },
        "group_limit_number": {
          "type": "number"
        },
        "acceptInvitation": {
          "type": "boolean"
        }
      }
    },
    "AcceptGroupInvitationRequest": {
      "type": "object",
      "properties": {
        "groupId": {
          "type": "string"
        },
        "userId": {
          "type": "string"
        },
        "invitationId": {
          "type": "string"
        }
      }
    },
    "DeclineGroupInvitationRequest": {
      "type": "object",
      "properties": {
        "groupId": {
          "type": "string"
        },
        "userId": {
          "type": "string"
        },
        "invitationId": {
          "type": "string"
        }
      }
    },
    "setActiveGroupRequest": {
      "type": "object",
      "properties": {
        "groupId": {
          "type": "string"
        },
        "isActiveGroup": {
          "type": "boolean"
        }
      }
    },
    "readNotificationRequest": {
      "type": "object",
      "properties": {
        "notificationId": {
          "type": "string"
        },
        "isRead": {
          "type": "boolean"
        }
      }
    },
    "sendNotificationRequest": {
      "type": "object",
      "properties": {
        "id": {
          "type": "string"
        },
        "senderId": {
          "type": "string"
        },
        "recieverId": {
          "type": "string"
        },
        "message": {
          "type": "string"
        }
      }
    },
    "sendPushNotificationRequest": {
      "type": "object",
      "properties": {
        "id": {
          "type": "string"
        },
        "groupId": {
          "type": "string"
        },
        "message": {
          "type": "string"
        }
      }
    },
    "RejectCallRequest": {
      "type": "object",
      "properties": {
        "groupId": {
          "type": "string"
        },
        "callId": {
          "type": "string"
        },
        "ownerId": {
          "type": "string"
        }
      }
    },
    "LauchCallRequest": {
      "type": "object",
      "properties": {
        "id": {
          "type": "string"
        },
        "ownerId": {
          "type": "string"
        },
        "groupId": {
          "type": "string"
        },
        "participants": {
          "type": "array",
          "items": {
            "$ref": "#/definitions/groupMember"
          }
        }
      }
    },
    "SetAudioMessageListenedRequest": {
      "type": "object",
      "properties": {
        "messageId": {
          "type": "string"
        }
      }
    },
    "createGroupRequest": {
      "type": "object",
      "properties": {
        "ownerId": {
          "type": "string"
        },
        "groupName": {
          "type": "string"
        },
        "groupDescription": {
          "type": "string"
        },
        "members": {
          "type": "array",
          "items": {
            "$ref": "#/definitions/groupMember"
          }
        }
      }
    },
    "UnBlockUserRequest": {
      "type": "object",
      "properties": {
        "id": {
          "type": "string"
        },
        "blockerUserId": {
          "type": "string"
        },
        "blockedUserkId": {
          "type": "string"
        }
      }
    },
    "ReportUserRequest": {
      "type": "object",
      "properties": {
        "id": {
          "type": "string"
        },
        "reporterId": {
          "type": "string"
        },
        "reportedUserId": {
          "type": "string"
        },
        "comment": {
          "type": "string"
        }
      }
    },
    "blockUserRequest": {
      "type": "object",
      "properties": {
        "id": {
          "type": "string"
        },
        "blockerUserId": {
          "type": "string"
        },
        "blockedUserId": {
          "type": "string"
        }
      }
    },
    "syncWithUserRequest": {
      "type": "object",
      "properties": {
        "userId": {
          "type": "string"
        },
        "contacts": {
          "type": "array",
          "items": {
            "$ref": "#/definitions/Contacts"
          }
        }
      }
    },
    "validateSmsCodeRequest": {
      "type": "object",
      "properties": {
        "id": {
          "type": "string"
        },
        "smsCode": {
          "type": "number"
        },
        "userId": {
          "type": "string"
        }
      }
    },
    "createUserRequest": {
      "type": "object",
      "properties": {
        "id": {
          "type": "string"
        },
        "nickName": {
          "type": "string"
        },
        "phoneNumber": {
          "type": "string"
        },
        "countryId": {
          "type": "string"
        }
      }
    },
    "updateUserInfoRequest": {
      "type": "object",
      "properties": {
        "phoneNumber": {
          "type": "string"
        },
        "firstName": {
          "type": "string"
        },
        "lastName": {
          "type": "string"
        },
        "nickName": {
          "type": "string"
        },
        "status": {
          "type": "number"
        },
        "countryId": {
          "type": "string"
        },
        "avatar": {
          "type": "string"
        },
        "settings": {
          "type": "object"
        }
      }
    },
    "addUserInGroupRequest": {
      "type": "object",
      "properties": {
        "groupId": {
          "type": "string"
        },
        "userId": {
          "type": "string"
        }
      }
    },
    "renameGroupRequest": {
      "type": "object",
      "properties": {
        "groupId": {
          "type": "string"
        },
        "groupName": {
          "type": "string"
        }
      }
    },
    "groupInvitationRequest": {
      "type": "object",
      "properties": {
        "id": {
          "type": "string"
        },
        "date": {
          "type": "string",
          "pattern": "/([0-9]{4})-(?:[0-9]{2})-([0-9]{2})/",
          "example": "2022-08-02"
        },
        "status": {
          "type": "string"
        },
        "senderId": {
          "type": "string"
        },
        "receiverId": {
          "type": "string"
        },
        "groupId": {
          "type": "string"
        },
        "invitationToken": {
          "type": "string"
        },
        "invitationUrl": {
          "type": "string"
        },
        "type": {
          "type": "string"
        }
      }
    },
    "updateGroupSettings": {
      "type": "object",
      "properties": {
        "groupId": {
          "type": "string"
        },
        "limitPerUser": {
          "type": "number"
        },
        "groupLimitNumber": {
          "type": "number"
        }
      }
    },
    "maxUserPergroupRequest": {
      "type": "object",
      "properties": {
        "maxUser": {
          "type": "number"
        }
      }
    },
    "UpdateUserRequest": {
      "type": "object",
      "properties": {
        "name": {
          "type": "string"
        },
        "username": {
          "type": "string"
        },
        "profilePicture": {
          "type": "string"
        }
      }
    },
    "ValidateSmsCodeRequest": {
      "type": "object",
      "properties": {
        "userId": {
          "type": "string"
        },
        "code": {
          "type": "string"
        }
      }
    },
    "RegisterUserRequest": {
      "type": "object",
      "properties": {
        "phoneNumber": {
          "type": "string"
        },
        "country": {
          "type": "string"
        }
      }
    },
    "Contacts": {
      "properties": {
        "phoneNumber": {
          "type": "string"
        },
        "firstName": {
          "type": "string"
        },
        "lastName": {
          "type": "string"
        },
        "countryId": {
          "type": "string"
        },
        "avatar": {
          "type": "string"
        },
        "settings": {
          "type": "object"
        }
      }
    },
    "groupMember": {
      "type": "object",
      "properties": {
        "id": {
          "type": "string"
        }
      }
    },
    "audioFile": {
      "type": "object",
      "properties": {
        "duration": {
          "type": "number"
        },
        "url": {
          "type": "string"
        }
      }
    },
    "createAudioMessageRequest": {
      "type": "object",
      "properties": {
        "messageId": {
          "type": "string"
        },
        "audioFile": {
          "$ref": "#/definitions/audioFile"
        },
        "owernId": {
          "type": "string"
        },
        "groupId": {
          "type": "string"
        },
        "callId": {
          "type": "string"
        },
        "isNeedTranscode": {
          "type": "boolean"
        },
        "recipientLists": {
          "type": "array",
          "items": {
            "$ref": "#/definitions/groupMember"
          }
        }
      }
    }
  },
  "externalDocs": {
    "description": "Find out more about Swagger",
    "url": "http://swagger.io"
  },
  "host": "virtserver.swaggerhub.com",
  "basePath": "/rhopenlabsafrica/Tello-Api/1.0.0"
}
